1005303393นางสาว         กุลกัลยา รุกขะวัฒน์                  235082058             ม.รามอินทรานิเวศน์ รามอินทรา            เขตคันนายาว กทม102300802463939     101130B0391 T 1102700200991chicken_meaw_007@hotmail.com                      991570031817  001201 0508 O   +0HW  000   000 0 ตกลง
1005757906นางสาว         สุภัตรา พระสุนนท์                    2371020               กรุณาถามที่อยู่                                             0878644180     10508001201 T 1459900444471                                                  991570031801  001201 0508A    +000  000   000 0 ตกลง
10N5648706นางสาว         ศิโรธร บัวเขียว                      237030536/742         ต.คลองสาม อ.คลองหลวง                    ปทุมธานี       121200879906817     112300A0000 T 1103701341491                                                  991570031822  001201 0508A    +000  000   000 0 ตกลง
