1002213290นาย            ชัยพร พานิชอัตรา                     1040409 ภจว.ลพบุรี    อ.เมือง                                 ลพบุรี         150000816474433     210280C0033 T 3730600725543                                                  9915810388443 001201 1214  B  +000  000   000 0 ตกลง
1002811248ดาบตำรวจ       สมพงษ์ แก้วโสภา                      108112663 ซ.9         ถ.ร่มเกล้า แขวงแสนแสบ                   เขตมีนบุรี กทม.105100816140123     201020A0000 T 3451000302793                                                  9915810383322 001201 1214 O   +000  000   000 0 ตกลง
1003125473นาย            ชาญชัย หมัดสะและ #                   1130816909            ซ.พระยาสุเรนทร์ 30 แขวงบางชัน           คลองสามวา กทม. 105100867747623     -06220B0222 T 3101000373146                                                  9915810387114 001201 1214A    +000  000   000 0 ตกลง
1003153843นางสาว         สุภา ศรีพนม                          215101050/328         ถ.หทัยราษฎร์ ซ.6 แขวงบางชัน             คลองสามวา กทม. 105100827047646     -11220B0209 T 3101201360963                                                  9915810382816 001201 1214 O   +000  000   000 0 ตกลง
1003201327               วัฒนชัย ศรีทอง                       1100909555 ม.1        ส.น.จรเข้น้อย เขตลาดกระบัง              กทม.           105200812569415     201100B0001 T 3410400302455                                                  991581038448  001201 1214 O   +000  000   000 0 ตกลง
1003354507นางสาว         วริกา ไชยศรี                         2080702265            มูลนิธิสายใจไทย แขวงบางนา               เขตบางนา กทม.  102600870680969     -11290E0374 T 3489900083955                                                  991580076639  001201 1214  B  +000  000   000 0 ตกลง
1003659879ร้อยตำรวจโท    กิตติคม สุขนุ้ยคุณากร #              11204183/1 ซ.ไอซีดี 3 แขวงคลองสามประเวศ                       ลาดกระบัง กทม. 105200907893656     212050A0000 T 5930890002218                                                  9915810384644 001201 1214 O   +000  000   000 0 ตกลง
1003857792ดาบตำรวจ       วีรพล ศรีพิบูลย์                     1171017356/92         แฟลตการเคหะร่มเกล้า 24 คลองสอง          ลาดกระบัง กทม. 105200859760619     211130A0000 T 3801300556142                                                  991581038683  001201 1214  B  +000  000   000 0 ตกลง
1004039131นาย            ชัยรัตน์ เวสกุล                      12205124/470          กรมทหารราบที่11 แขวงอนุสาวรีย์          เขตบางเขน กทม. 102200890018747     207180C0033 T 3640500621429                                                  9915800766132 001201 1214  B  +000  000   000 0 ตกลง
1004082044ดาบตำรวจ       ไพรัช ร้อยแก้ว                       11106257/190 ม.5      ม.นันทวันเซนต์2 กระทุ่มราย              เขตหนองจอก กทม.105300819000642     20212       T 3770500085267                                                  99158103885130001201 1214 O   +000  000   000 0 ตกลง
1004124042นาย            พิพัฒน์ อักษร                        114013089 ม.3         ร.ร.ตำรวจนครบาล ถ.วิภาวดีฯ              เขตหลักสี่ กทม.102200892991077     204290C0008 T 3350600182098                                                  991581038545  001201 1214  B  +000  000   000 0 ตกลง
1004144840นางสาว         โชติมณี ปฐมทอง #                     2190928167 แขวงทับยาว เขตลาดกระบัง                            กทม.           105200929943132     -07260H0077 T 3101100204346                                                  9915800765821 001201 1214A    +000  000   000 0 ตกลง
1004145939               ประจักษ์ กุลนาพันธ์                  1151112วังปารุส       กองกำกับการอารักขา ถ.ศรีอยุธยา          เขตดุสิต กทม.  103000899849178     207310C0114 T 3601101299796                                                  9915810383213 001201 1214A B  +000  000   000 0 ตกลง
1004216809พันตำรวจโท     ภูวไนย เสนาวุธ                       1051204 กก.อารักขา 2  วังปารุส                                เขตดุสิต กทม.  103000819873313     204070C0091 T 3730600726892                                                  991581038596  001201 1214A    +000  000   000 0 ตกลง
1004427366ดาบตำรวจ       ประทาน บัวงาม                        112102950/45 ม.2      แขวงคู้ฝั่งเหนือ เขตหนองจอก             กทม.           105300878089286     206270F0002 T 3330300758687                                                  991581038298  001201 1214 O   +HH1  000   000 0 ตกลง
1004429241นาย            รุ่ง รัตนศิริฤกษ์                    120041018/188 ม.15    ซ.ออมทรัพย์ ถ.ร่มเกล้า                  เขตมีนบุรี กทม.105100852775636     207080A0000 T 3101000288386                                                  991581038796  001201 1214A    +000  000   000 0 ตกลง
1004503283ดาบตำรวจ       อุทัย ก้งซุย                         111112073/135 ม.10    แขวงลำผักชี เขตหนองจอก                  กทม.           105300865059223     201180B0079 T 3400400550157                                                  991581038359  001201 1214  B  +000  000   000 0 ตกลง
1004552480จ่าสิบตำรวจ    ภูวราช สรเสน                         127120663/2678        ม.เคหะธานี 4 ม.7 ถ.ราษฎร์พัฒนา          เขตสะพานสูง กทม102400859138595     210080C0036 T 1809700016928                                                  9915810387710 001201 1214  B  +000  000   000 0 ตกลง
1004638687ดาบตำรวจ       ไชยวัฒน์ เกิ้นโนนกอก                 1080628สน.นิมิตรใหม่  เขตคลองสามวา                            กทม.           105100617736122     207240C0091 T 5609990013468                                                  991581038633  001201 1214  B  +000  000   000 0 ตกลง
1004724806ดาบตำรวจ       อุทัย ศรีษะนาราช                     111042370/211         ซ.อยู่วิทยา กระทุ่มราย                  หนองจอก กท     105100839909965     204260C0140 T 3401200109385                                                  991581038422  001201 1214  B  +000  000   000 0 ตกลง
1004724809ดาบตำรวจ       กฤษฎ์ ใจผ่อง                         1120502159/239 ม.5    แขวงคลองสามประเวศ                       ลาดกระบัง กทม. 105200816522326     -04260C0140 T 3139900067791                                                  991581038832  001201 1214A B  +000  000   000 0 ตกลง
1004724957ดาบตำรวจ       มาโนช พบพาน                          108100898/9 ม.1       ถ.ร่มเกล้า คลองสองต้นนุ่น               ลาดกระบัง กทม. 105200818892704     204260C0140 T 3140300233195                                                  991581038453  001201 1214 O   +000  000   000 0 ตกลง
1004725259ดาบตำรวจ       สุริยา เสนามี                        1140406152 ม.8        สน.หนองจอก แขวงหนองจอก                  เขตหนองจอก กทม.105300890304952     204280F0002 T 3250200624167                                                  991581038309  001201 1214  B  +000  000   000 0 ตกลง
1004762330ดาบตำรวจ       ภานุวัฒน์ มีนาม                      1131114สน.ลาดกระบัง   แขวงลาดกระบัง                           ลาดกระบัง กทม. 105200613791281     209100C0091 T 3320300148617                                                  991581038474  001201 1214  B  +000  000   000 0 ตกลง
1004824216พันตำรวจโท     สมชาย องคสิงห์                       1050112190            กองบังคับการตำรวจนครบาล3 ถ.สีหบุรานุกิจ เขตมีนบุรี กทม.105100891690702     205090A0000 T 3100600820509                                                  9915810388914 001201 1214  B  +000  000   000 0 ตกลง
1004951964ดาบตำรวจ       ไชยการ อุ่นอุรา #                    1110607140/27 ม.8     แขวงหนองจอก เขตหนองจอก                  กรุงเทพฯ       105300819184943     207310F0002 T 3640600583987milk_lamgai@hotmail.com                           9915810382512 001201 1214A B  +000  000   000 0 ตกลง
1005116427พระ            ศักดิ์กมล สาบุญเสริม                 1151003โลตัสรามอินทรา แขวงลาดพร้าว เขตลาดพร้าว                กทม.           102300845733276     503150M0245 T 3100904251326                                                  9915800764822 001201 1214 O   +000  000   000 0 ตกลง
1005151303ดาบตำรวจหญิง   อัญชลี ชื่นเรณู                      2160224555 ม.1        สน.จรเข้น้อย แขวงทับยาว                 ลาดกระบัง กทม. 105200815724095     208080M0112 T 5100699023785an101@windowslive.com                             991581038622  001201 1214  B  +000  000   000 0 ตกลง
1005210370นางสาว         ทวีวรรณ หรรษาวงศ์                    2211219315/6          สถาบันวิจัยฯ การแพทย์ทหาร               เขตราชเทวี กทม.104000894238497     20213001201 T 3340701096588                                                  991580076658  001201 1214  B  +000  000   000 0 ตกลง
1005307358นางสาว         พัชร์ธนิต ภิรมย์พันธุ์               2151227420/8          สถาบันสุขภาพเด็กฯ ถ.ราชวิถี             เขตราชเทวี กทม.104000955642261     20127001201 T 3900800089703                                                  991580076625  001201 1214 O   +000  000   000 0 ตกลง
1005387299นาย            โสภณ ยลโสภณ                          101051690/13          ซ.เปรมสมบัติแยก3 เขตดินแดง              กทม.           104000811727092     -1224001201 T 3100800721792soponxxx@hotmail.com                              9915800765910 001201 1214A    +000  000   000 0 ตกลง
1005429990นาย            วีศักดิ์ ศรีทอง                      119022767 ม.6         ต.เกาะเกร็ด อ.ปากเกร็ด                  นนทบุรี        111200930270979     30525001201 T 3120600880412                                                  991580076534  001201 1214 O   +000  000   000 0 ตกลง
1005432203นาย            อดิศักดิ์ ยั่งยืน                    11703141224/45        เคหะร่มเกล้า แขวงคลองสองฯ               ลาดกระบัง กทม. 105200843340119     306030M0388 T 3100503919890                                                  9915810384115 001201 1214  B  +000  000   000 0 ตกลง
1005548662นาง            สุนทรี นิลพงษ์บวร                    2010315235/29 ม.3     ซ.สร้อยทอง1 ต.สำโรง                     อ.พระประแดง สมุ101300884986774     207190D0029 T 3110490000162                                                  9915800765413 001201 1214  B  +000  000   000 0 ตกลง
1005581877นาย            ธิบดี นัดสันเทียะ                    1361105228 ม.4        ต.ท่ากระดาน อ.ศรีสวัสดิ์                กาญจนบุรี      712500916945800     21121001201 T 1710400054886                                                  991580076726  001201 1214A    +000  000   000 0 ตกลง
1005674927นาย            ธัญญ์นิธิ สินวราเสฏฐ์                117080650/285         ม.เมืองประชา-รามอินทรา                  คลองสามวา กทม. 105100983946058     -08180E0941 T 3100905658322tanniti_csd@hotmail.com                           991581038273  001201 1214 O   +000  000   000 0 ตกลง
1005738645นางสาว         เอื้ออัญ แสนสุข                      2340706342/1718       หอพักเอี่ยมสุข ซ.จินดา                  เขตลาดกระบัง กท105200918811482     303190M0356 T 1969900124456                                                  991581038756  001201 1214A    +000  000   000 0 ตกลง
1005761378นางสาว         หทัยทิพย์ พุ่มกุมาร                  232051539 ม.14        ต.บางปลา อ.บางเลน                       นครปฐม         731300874021737     -0516001201 T 1739900199377                                                  991580076554  001201 1214A    +000  000   000 0 ตกลง
1005837331ร้อยตำรวจโท    ณรันณ์ธรณ์ สุขเจริญกุล               118082538/7 ม.13      สน.สุวินทวงศ์ กระทุ่มราย เขตหนองจอก     กทม.           105300850111191     203100E0948 T 3401200100744                                                  991581038343  001201 1214A    +000  000   000 0 ตกลง
1005856196นาย            ประทีป พินิจการ                      1280922100 ม.1        ต.ทุ่งคอก อ.สองพี่น้อง                  สุพรรณบุรี     721100912801089     30408001201 T 1730200028652                                                  991580076712  001201 1214A    +000  000   000 0 ตกลง
1005856200นางสาว         สมจิตร พินิจการ                      225020669 ม.1         ต.ทุ่งคอก อ.สองพี่น้อง                  สุพรรณบุรี     721100904437661     30408001201 T 3720700141080                                                  991580076692  001201 1214A B  +000  000   000 0 ตกลง
1005885051นาย            จิรวัฒน์ ชิงขุนทด                    133071445 ม.10        ต.กุดโบสถ์ อ.เสิงสาง                    นครราชสีมา     303300810630309     30611001201 T 1309900628999                                                  991580076523  001201 1214A    +00W  000   000 0 ตกลง
1695650689นาย            เพชราวุธ ฤกษ์สำราญ                   1350117132/54         ถ.พระราม6 แขวงสามเสนใน                  เขตพญาไท กทม.  104000837066823     20615001201 T 1101401926921                                                  991580076605  001201 1214 O   +000  000   000 0 ตกลง
1043300576ดาบตำรวจ       ทรงวุฒิ อินทโสต                      1101229103/90 ม.9     ต.คลองอุดมชลจร อ.เมือง                  ฉะเชิงเทรา     240000814582459     203290E0179 T 3660500137748                                                  9915810386111 001201 1214  B  +000  000   000 0 ตกลง
10N5626992นางสาว         วาทินี ยอดศรีมงคล                    2180214158/18         ซ.ลาดพร้าว 41 แขวงจันทรเกษม             เขตจตุจักร กทม.109000863938115     -11190B0029 T 3102002454730smileplace@yahoo.com                              991580076505  001201 1214A    +000  000   000 0 ตกลง
10N5639211นาย            มรุต ภิญโญเทพประทาน                  1320720114/1 ซ.มหาดไทยแขวงพลับพลาไชย                          เขตวังทองหลาง ก103100942419331     112080A0000 T 1809900263155                                                  991581038433  001201 1214 O   +000  000   000 0 ตกลง
1435400207ดาบตำรวจ       วิเชษฐ์ วงศ์วัชรพงษ์                 112021115             ถ.เลียบคลองลำกอไผ่  ลำปลาทิว            ลาดกระบัง กทม. 105200853512185     212160M0112 T 3760100453315ja-cheat@hotmail.com                              991581038906  001201 1214  B  +000  000   000 0 ตกลง
10N5737221นางสาว         จินตนา อำทะวงษ์                      233061131/81 ซ.โชคชัย4แขวงลาดพร้าว เขตลาดพร้าว                กทม.           102300844174417     109210A0000 T 1401700125049                                                  991581038663  001201 1214A    +000  000   000 0 ตกลง
10N5769740ดาบตำรวจ       ไพรัตน์ ขาวไชยมหา                    110081912             ซ.คุ้มเกล้า38 แขวงลำปลาทิว เขตลาดกระบัง กทม.           105200832424177     21126001501 TN3419900099461                                                  9915810389111 001201 1214 O   +000  000       & ตกลง
10N5769742ดาบตำรวจ       วิญสัณห์ คำมา                        1120118กก.สส.บก.น3    เขตมีนบุรี                              กทม.           105100895361997     21126001501 T 3400600026621                                                  991581038763  001201 1214 O   +000  000   000 0 ตกลง
10N5769772สิบตำรวจตรี    ไตรภพ รักษาภักดี                     132030238 ม.13        แขวงกระทุ่มราย เขตหนองจอก               กทม.           105300872325158     21126001501 T 1410500056751                                                  991581038583  001201 1214 O   +000  000   000 0 ตกลง
10N5769777นาย            ยุทธนารัตน์ บายศรี                   136060425 ม.4         แขวงคลองสิบสอง เขตหนองจอก               กทม.           105300918100474     21126001501 T 1349900568575                                                  991581038742  001201 1214A B  +000  000   000 0 ตกลง
10N5870427นาย            สุทัศน์ วงษ์หงษ์                     1310802134/36         แขวงทับยาว                              ลาดกระบัง กท   105200854937437     21214001201 T 1330900146546                                                  991581038361  001201 1214A    +000  000   000 0 ตกลง
10N5870430นางสาว         ดวงฤดี พันสมตน                       207111499/275         ม.ร่มทิพย์ ถ.หทัยราษฎร์                 คลองสามวา กท   105100815579387     -1214001201 T 3102002003452                                                  991581038381  001201 1214A B  +000  000   000 0 ตกลง
10N5870477นาง            ศิวพร สิทธิศรีจันทร์                 207120550/280         ม.ศุภาวัลย์ ถ.หทัยราษฎร์                คลองสามวา กท   105100813370752     -1214001201 T 3909700077337                                                  991581038391  001201 1214  B  +000  000   000 0 ตกลง
10N5870507นาย            เศกสันต์ พุ่มสุข                     110061619/1           ต.ห้วยหิวก่ำ                            อ.จุน พย       561100886098140     -1214001201 T 3579900202961                                                  991581038401  001201 1214  B  +000  000   000 0 ตกลง
10N5870532นางสาว         ธัญภัส ส่งแสง                        204010999/560         ม.ร่มทิพย์ บางชัน                       คลองสามวา กท   105100809168611     31214001201 T 3200200709375                                                  991581038481  001201 1214A    +000  000   000 0 ตกลง
10N5870533นาง            ฤทัยรัตน์ องค์ศิริ                   2070130               กรุณาถามที่อยู่                                                            -1214001201 T 3550100721966                                                  991581038491  001201 1214  B  +000  000   000 0 ตกลง
10N5870534ดาบตำรวจ       ชาญชัย เอ็มสะมัน                     11104047  ม.7         ต.เปร็ง                                 อ.บางบ่อ สป    105600853282160     21214001201 T 3100904525574                                                  991581038501  001201 1214  B  +000  000   000 0 ตกลง
10N5870536นาย            ชวลิต หนูฉ้ง                         128082155/40 โอมเพลส  คลองสองต้นนุ่น                          ลาดกระบัง กท   105200850840964     21214001201 T 1920300020082                                                  991581038511  001201 1214 O   +000  000   000 0 ตกลง
10N5870538ดาบตำรวจ       ทุ่งวัชรินทร์ วงษ์นุช                1080106209/55 ม.8     ถ.สกุลดี 5/1                            หนองจอก กท     105300869969641     21214001201 T 3101400994245                                                  991581038521  001201 1214  B  +000  000   000 0 ตกลง
10N5870539ร้อยตำรวจโท    บัญชา เล่ทองคำ                       1231225356/139 แฟลต 24คลองสองต้นนุ่น                          ลาดกระบัง กท   105200859566006     21214001201 T 3910100034426                                                  991581038531  001201 1214A    +000  000   000 0 ตกลง
10N5870541นางสาว         ธัญวลัย พันโนราช                     21705061139/9         เคหะร่มเกล้า คลองสองต้นนุ่น             ลาดกระบัง กท   105200949922506     31214001201 T 3730100841706                                                  991581038551  001201 1214A    +000  000   000 0 ตกลง
10N5870542ร้อยตำรวจโทหญิงรุ่งอรุณ ปิ่นสุข                     218090822/336 บุรีรมย์ซาฟารีฯ ซ.เลียบคลองสอง23                เขตคลองสามวา กท105100814328322     21214001201 T 3460700075403                                                  991581038651  001201 1214  B  +000  000   000 0 ตกลง
10N5870543พันตำรวจโท     สุวิมล มั่นใจ                        1091104               ถามที่อยู่                                                  0836959559     21214001201 T 3710500213591                                                  991581038691  001201 1214 O   +000  000   000 0 ตกลง
10N5870544นาย            ฐานิตย์ พิทยาธร                      1270604201/346        ซ.อยู่วิทา12 แขวงกระทุ่มราย เขตหนองจอก  กทม.           105300824426693     31214001201 T 1100400031296                                                  991581038701  001201 1214 O   +000  000   000 0 ตกลง
10N5870545นาย            เรียนชัย กาติ๊บ                      1220203169 ม.7        ต.อ่างทอง อ.เชียงคำ                     พะเยา          561100891919611     31214001201 T 3560301008647                                                  991580076641  001201 1214 O   -000  000   000 0 ตกลง
10N5870547นางสาว         จินดาพร กิ่งชัย                      217090661/823 ม.2     ถ.สุวินทวงศ์ ลำผักชี                    หนองจอก กท     105300866618306     31214001201 T 3660500635012                                                  991581038561  001201 1214A B  +000  000   000 0 ตกลง
10N5870548นางสาว         วันดี วินากร                         22206051273/20 ม.9    เอื้ออาทร 5 ประชาพัฒนา                  ทับยาว ลาดกระบั105200910180111     11214001201 T 5310600044813                                                  991581038571  001201 1214 O   +000  000   000 0 ตกลง
10N5870550ดาบตำรวจ       สุชาติ นุ่มเพิ้ง                     115052390/39 ม.7      ต.คลองสอง อ.คลองหลวง                    ปทุมธานี       121200835461529     21214001201 T 3309901771902                                                  991581038241  001201 1214 O   +000  000   000 0 ตกลง
10N5870551สิบตำรวจตรี    ภาณุชิต ศรีเฉลียว                    133121479 ม.10        ต.ผาสุก                                 อ.วังสามหมอ อด 412800983265859     21214001201 T 1411000088779                                                  991581038601  001201 1214A    +000  000   000 0 ตกลง
10N5870552ร้อยตำรวจเอก   ฟองประชา อรรคฮาด                     1100112138/24         ทับยาว                                  ลาดกระบัง กทม. 105200918766811     21214001201 T 3451100622242                                                  991581038641  001201 1214 O   +000  000   000 0 ตกลง
10N5870553นาย            สมพร เพียรทอง                        112022411 ซ.ไอซีดี    แยก7 แขวงคลองสามประเวศ เขตลาดกระบัง     กทม.           105200800802529     21214001201 T 3730101670077                                                  991581038921  001201 1214  B  +000  000   000 0 ตกลง
10N5870554นางสาว         มีนา มั่นพรม                         2380525108/119        ซ.เคหะร่มเกล้า15 แขวงคลองสองต้นนุ่น     เขตลาดกระบัง กท105200809730681     31214001201 T 1102700474853                                                  991581038951  001201 1214 O   +000  000   000 0 ตกลง
1105824422นาย            สดายุ แสนยศ                          1300825272  ม.14      ต.ในเมือง อ.เมือง                       ขอนแก่น        400000837363739     20401601201 T 1311400041592                                                  991581038733  001201 1214 O   +000  000   000 0 ตกลง
1143401324ดาบตำรวจ       สำเร็จ จอมครบุรี                     114041749/9 ม.3       แฟลตประชาสำราญ เขตหนองจอก               กทม.           105300926420164     205020C0008 T 3300200439679                                                  9915810382611 001201 1214 O   +000  000   000 0 ตกลง
1144905930นาย            อนุวัฒน์ ชุดกระโทก                   127012365 ม.7         ต.อรพิมพ์ อ.ครบุรี                      นครราชสีมา     302500872395382     20501501401 T 1309990012011                                                  991580076495  001201 1214 O   +000  000   000 0 ตกลง
1155605169นาย            กษิดิศ เชื้อสง่า                     1390426198/11 ม.7     ต.ไสไทย อ.เมือง                         กระบี่         810000610496509     11106PB0004 T 1929900524756top_freedom12@hotmail.com                         991581038674  001201 1214A    +000  000   000 0 ตกลง
1204602397ร้อยตำรวจโท    พิเชษฐ์ เผือกทอง                     118120137/392         ซ.หทัยราษฎร์39 แขวงสามวาตะวันตก         เขตคลองสามวา กท105100922613346     -1114402201 T 3770100437158                                                  991581038865  001201 1214  B  +000  000   000 0 ตกลง
1205003596ร้อยตำรวจเอก   คมสัน คุ้มครอง                       126061725/5 ม.4       ถ.ประชาสำราญ คลองสิบสอง                 เขตหนองจอก กทม.105300939277113     21204402201 T 3820400258444cumcnong@hotmail.com                              991581038948  001201 1214A    +000  000   000 0 ตกลง
1215302243นาย            วุฒิชัย บุญแรง                       116012017 ม.1         ต.ทุ่งคอก อ.สองพี่น้อง                  สุพรรณบุรี     721100890140454     31028205201 T 3560300211261                                                  991580076682  001201 1214 O   +000  000   000 0 ตกลง
1273401214นาง            อาศิรา สุสันหกนก #                   2030408319            สำนักงานรัฐมนตรี อ.ราชวัลลภ             เขตดุสิต กทม.  103000816746177     211140A0000 T 3860400457331ann_asira@hotmail.com                             9915800765756 001201 1214 O   +000  000   000 0 ตกลง
1325500344สิบตำรวจตรี    ณัฐวัตร บุพศิริ                      138013025 ม.4         ถ.ประชาสำราญ แขวงคลองสิบสอง เขตหนองจอก  กทม.           105300810604123     20307705201 T 1480800125881                                                  991581038722  001201 1214 O   +000  000   000 0 ตกลง
1600064443นาย            พนม ศรีสว่าง                         1050930170/1          ถ.คีรีรัถยา อ.เมือง                     เพชรบุรี       760000875497567     20908001201 T 3769900273778                                                  9915800766647 001201 1214 O   +000  000   000 0 ตกลง
1632600026นาย            สุพิม เสียมเพ็ชร์                    1061126 สน.ประชาสำราญ เขตหนองจอก                              กทม.           105300812349282     202230F0002 T 3310600494774                                                  9915810388164 001201 1214 O   +000  000   000 0 ตกลง
1684000081นาย            สุรพล สงวนประเสริฐ                   104072427/10 ม.6      ต.บางกะเจ้า อ.พระประแดง                 สมุทรปราการ    101300861613621     -1130       T 3110400890929                                                  9915800765681 001201 1214 O   +000  000   000 0 ตกลง
1690000030นาย            ทนงศักดิ์ บุญแรง                     140091517 ม.1         ต.ทุ่งคอก อ.สองพี่น้อง                  สุพรรณบุรี     721900884563315     10707402201 T 1729800195361                                                  991580076703  001201 1214  B  +000  000   000 0 ตกลง
1764302221ร้อยตำรวจโท    อรรถสิทธิ์ ธารกอง                    1251217 กองกำกับการ3  ค่ายพระยอดฯ                             อ.เมือง อุบลฯ  340000873766686     20308701201 T 3341500565875                                                  991581038885  001201 1214A B  +000  000   000 0 ตกลง
1793900011ร้อยตำรวจเอก   พนา พิสูตร                           1121221สน.ฉลองกรุง    แขวงลำปลาทิว                            เขตลาดกรบัง กทม105200898887635     203010D0180 T 3710100755176                                                  9915810388040 001201 1214 O   +001  000   000 0 ตกลง
1794400795นาย            ชาติวุฒิ ตั้งอุดมภพ                  127040171/248         ต.เสาธงหิน อ.บางใหญ่                    นนทบุรี        111400817050799     307170B0307 T 1719900007346                                                  9915800765118 001201 1214 O   +000  000   000 0 ตกลง
1895600306ร้อยตำรวจโท    วีระพันธ์ เหล่าเมืองกลาง             1261110152 ม.8        ถ.ผดุงพันธ์ แขวงหนองจอก เขตหนองจอก      กทม.           105300926585087     20509307202 T 3340500456650                                                  991581038313  001201 1214 O   +000  000   000 0 ตกลง
2115102605นางสาว         สิริพัตร พรหมมณี                     2250417201/413        ซ.อยู่วิทยา12 แขวงกระทุ่มราย เขตหนองจอก กทม.           105300852060479     30212C01202 T 3900700451842                                                  991581038964  001201 1214A    +000  000   000 0 ตกลง
3004446464ร้อยตำรวจโท    พันธุ์ธัช ทองอ้ม                     118011772 สน.ลำหิน    แขวงคู้ฝั่งเหนือ เขตหนองจอก             กทม.           105300822232999     20524402201 T 3321000819673soullved@hotmail.com                              9915810383725 001201 1214A B  +000  000   000 0 ตกลง
3085301755พันตำรวจตรี    พิพัฒน์ ว่องเจริญพืชผล               125110530/3 ม.17      ถ.สุวินทวงศ์ แขวงมีนบุรี เขตมีนบุรี     กทม.           105100894629594     205183A0000 T 3200100823281                                                  991581038232  001201 1214  B  +000  000   000 0 ตกลง
