1003734783นางสาว         อัญชลีวรรณ เมธีนัยพร           ! (DC)2200227299/120        ม.คาซ่าซิตี้นวลจันทร์ 2 แขวงคลองกุ่ม เขตกทม.           102300818300584     308090B0215 T 3100903947483                                                  9915900687722 001201 1005 O   +000  000   000 0 ตกลง
1003761227นาง            อมรรัตน์ จันทนาอรพินธ์ #             2180810               ค.ทรัพยากรธรรมชาติ ม.สงขลานครินทร์ อ.หาดสงขลา          901120891294213     212130B0291 T 3100200276437amonrat.b@studemt.chula.ac.th                     9915900688632 001201 1005A B  +000  000   000 0 ตกลง
1004105701นางสาว         ศรัญญา ชาญพานิชกิจโชติ               2231010162/133        ถ.ร่มเกล้า แขวงมีนบุรี                  เขตมีนบุรี กทม.105100818742777     201270A0000 T 3110101282510ch_saranya10@hotmail.com                          9915900688267 001201 1005A    +000  000   000 0 ตกลง
1004508875นาย            พิชิต สุดใจ                          128011135/1 ม.2       ถ.สุขสวัสดิ์ ซ.30 แขวงบางปะกอก          ราษฎร์บูรณะ กทม101400890873114     302110D0200 T 1720800010207                                                  991590068753  001201 1005A    +001  000   000 0 ตกลง
1004955107นาย            จุริพัตร บุญชุ่ม                     117060164/48 ม.5      ถ.สรงประภา แขวงสีกัน                    เขตดอนเมือง กทม102100818423125     308070E0948 T 3140800338646puay_ku@yahoo.com                                 9915900688918 001201 1005A    +000  000   000 0 ตกลง
1005217744นาย            สัญญา วงศ์สกุล                       118110917/271 ม.4     ซ.ประชาอุทิศ19 แขวงบางมด                เขตทุ่งครุ กทม.101400846665813     -03150M0077 T 3700700324389                                                  9915900689417 001201 1005 O   +000  000   000 0 ตกลง
1005260854นางสาว         นภวรรณ อดทน                          2340729129 ม.8 ต.กำแพงอ.อุทุมพรพิสัย                          ศรีสะเกษ       331200909933420     208250B0029 T 1331000175559                                                  991590068955  001201 1005 O   +000  000   000 0 ตกลง
1005480037นาง            พรเพ็ญ โรท                           299011232 ซ.หัวหมาก9  แยก1 หัวหมาก                            บางกะปิ กทม.   102400818117977     -1125001201 T 3100602391354                                                  9915900688716 001201 1005 O   +000  000   000 0 ตกลง
1005583011นางสาว         ขวัญลักษณ์ ศรีวรรณะ                  23612202/1            แขวงทุ่งพญาไท เขตราชเทวี                กทม.           104000899559618     21123001201 T 1509901380883modtanoy_3599@hotmail.com                         991590068805  001201 1005  B  +000  000   000 0 ตกลง
1005851251นางสาว         พัชรินทร์ สโรจพุฒิพงศ์               22411291 ปิยะดาเพลส   ถ.อ่อนนุช 40 แขวงสวนหลวง                เขตสวนหลง      102500949456941     204020A0000 T 3349900820781                                                  991590068853  001201 1005  B  +000  000   000 0 ตกลง
1005851870นาย            อภิชัย ขันสาคร                       110041385 ม.9         ต.ศีรษะกระบือ อ.องครักษ์                นย.            261200831488094     20402001201 T 3160600446071                                                  991590068793  001201 1005A    +113  000   000 0 ตกลง
1005860943นางสาว         พิชญา อรุณรัตน์                      2320103624 NK แมนชั่น แขวงสวนหลวง เขตสวนหลวง                  กทม.           102500985390307     -04180E0941 T 1949800062874                                                  991590068973  001201 1005 O   +000  000   000 0 ตกลง
10N5641839นางสาว         มัยพัส วิราอนันต์รังษี               212050310 นาคนิวาส32  เขตลาดพร้าว                             กทม.           102300815032002     -12130M0438 T 3501900353806                                                  991590068814  001201 1005  B  +000  000   000 0 ตกลง
10N5728017นางสาว         ธมลวรรณ พรหมช่วย                     240102785/90 ม.4      ต.บางเมืองใหม่ อ.เมือง                  สมุทรปราการ    102700823294172     10903001201 T 1103702452998                                                  991590068788  001201 1005A    +000  000   000 0 ตกลง
10N5728092นาย            กิตติศักดิ์ จิตรภักดี                1320826115 ม.7        ต.ดอนทราย อ.ควนขนุน                     พัทลุง         931100863919193     209030G0062 T 1930500127964                                                  9915900689017 001201 1005 O   +000  000   000 0 ตกลง
10N5906016นางสาว         มลฤดี แก้วมณี                        225020936 ม.6         ต.ชำผักแพง อ.แก่งคอย                    สระบุรี        181100867560486     31005001201 T 3190100277229                                                  991590068741  001201 1005 O   +000  000   000 0 ตกลง
10N5906018นางสาว         นิ่มนวล เวชสุวรรณ                    223092632/30 ม.ไผ่ทอง ซ.ร่มไทร ถ.บางบอน3 เขตบางแค             กทม.           101600951422326     31005001201 T 3660600236047                                                  991590068881  001201 1005  B  +111  000   000 0 ตกลง
10N5906019นาย            ปณต จุฬาธรรมกุล                      1391209173 ถ.มนัส     ต.ในเมือง อ.เมือง                       นครราชสีมา     300000852431655     11005001201 T 1709800270045                                                  991590068761  001201 1005 O   +000  000   000 0 ตกลง
10N5906020นางสาว         ทองสิน มรดก                          209050732/31 ถ.บางบอน3แขวงหลักสอง เขตบางแค                    กทม.           101600819355599     -1005001201 T 3670500167949                                                  991590068921  001201 1005A    +000  000   000 0 ตกลง
10N5906021นางสาว         ถิรตรา เกตุสุวรรณ                    241040163/307 ม.2     ต.บางเมืองใหม่ อ.เมือง                  สป.            102700960086691     11005001201 T 1119900762301                                                  991590068831  001201 1005 O   +000  000   000 0 ตกลง
10N5906022นางสาว         กัญยาณี ศรีประเสริฐ                  241022231/489 ม.16    ต.คลองหนึ่ง อ.คลองหลวง                  ปทุมธานี       121200802837661     11005001201 T 1139600035501                                                  991590068841  001201 1005 O   +000  000   000 0 ตกลง
10N5906023พระ            VIMALASARA VIMALASARA                1180514279/1          ถ.สุทธิสาร แขวงสามเสนนอก เขตห้วยขวาง    กทม.           103100875789308     51005001201 T                                                                991590068961  001201 1005 O   +000  000   000 0 ตกลง
10N5906024นางสาว         วาสนา วงศ์สกุล                       223093017/271         ซ.ประชาอุทิศ19 แขวงบางมด เขตทุ่งครุ     กทม.           101400890683627     -1005001201 T 3700700324401                                                  991590068981  001201 1005 O   +000  000   000 0 ตกลง
1105220017นางสาว         นพมาศ ครบุรี                         226111938 ม.1         ต.หนองไผ่ อ.แก้งคร้อ                    ชัยภูมิ        361500908805516     30104601201 T 3361200110121                                                  9915900689112 001201 1005A    +000  000   000 0 ตกลง
1555320052แพทย์หญิง      จิติมา ติยายน                        2220204               กลุ่มงานสูตินรีฯ รพ.ราชวิถี             เขตราชเทวี กทม.104000816710920     21216001201 T 3509900277708                                                  9915900689324 001201 1005A    +000  000   000 0 ตกลง
