1003530315นางสาว         รชาภา อนันตชาติ #                    2170719601/36 ม.7     ต.คูคต อ.ลำลูกกา                        ปทุมธานี       121300944385786     -06240B0045 T 3720400769946pangpang_2517@hotmail.com                         991590001129  001201 0108  B  +000  000   000 0 ตกลง
1003600275นาย            ศิวกร มาลัย #                        1150909133/46         ม.นันทนาการ์เด้นท์ซ.9 บ้านกลาง          อ.เมือง ปทุมฯ  120000894866080     301050B0001 T 3520101274009www.siwakorn.malai@rpstech.com                    9915900009477 001201 0108  B  +000  000   000 0 ตกลง
1003735235นางสาว         วิภาภรณ์ อาจอาสา                     216031486/10 ม.16     ม.รนชัย ซ.2 ต.คูคต                      อ.ลำลูกกา ปทุมฯ121300802730515     308100B0026 T 3100503383540                                                  9915900011657 001201 0108  B  +HH2  000   000 0 ตกลง
1003921771นาย            ณุรักษ์ แก่นเพ็ชร                    114040818/1 ม.7       ต.คลองหก อ.คลองหลวง                     ปทุมธานี       121200809222621     305190J0046 T 3130200579456                                                  9915900010939 001201 0108 O   +000  000   000 0 ตกลง
1004827836นางสาว         นรมน หนูเสน  #                       2210923144/25         ซ.หมอแก้ว ถ.ประชาสงเคราะห์ 31           เขตดินแดง กทม. 103100992867905     -05190A0000 T 3800600139899                                                  9915900009114 001201 0108  B  +000  000   000 0 ตกลง
1005039950นางสาว         จันทร์ทา มั่งคำมี                    22406095              สนง.ป.ป.ส.(สยศ.) ถ.ดินแดง แขวงสามเสนใน  เขตพญาไท กทม.  104000812506490     306090A0000 T 3310700010141chanthasad@yahoo.com                              9915900008824 001201 0108 O   +000  000   000 0 ตกลง
1005104771นางสาว         ฐิตาภรณ์ บุญรอด #                    224092017/13 ม.1      ถ.เลียบวารี แขวงโคกแฝด เขตหนองจอก       กทม.           105300910037652     301180A0000 T 5100399001379knutjaree@hotmail.com                             9915900009010 001201 0108A    +00W  000   000 0 ตกลง
1005152704นาย            ชัยวัฒน์ บริบูรณ์นำชัย               125052580-82 ม.4      ต.บ้านใหม่ เขตครบุรี                    นครราชสีมา     302500835438254     308120A0000 T 3250400020788                                                  991590001036  001201 0108  B  +000  000   000 0 ตกลง
1005255208นาย            กฤษณพงษ์ ตันกูล                      1230407166/179        เดอะนิชคอนโด ลาดพร้าว130                เขตบางกะปิ กทม.102400860150062     -0805001201 T 3560100337244tungool@hotmail.com                               9915900011137 001201 0108  B  +000  000   000 0 ตกลง
1005311357นางสาว         เมวิษา โชติชัยกาญจน์                 2210405779/173 D-Condoถ.รามอินทรา แขวงท่าแร้ง เขตบางเขน       กทม.           102300871517575     302140A0000 T 3760100178608mevisa1@gmail.com                                 991590001013  001201 0108 O   +000  000   000 0 ตกลง
1005314889นาย            วสุภัทร์ สนธิวงษ์                    133051588/75          ถ.ปทุม-บางปะอิน ต.ลำโพ อ.บางบัวทอง      นนทบุรี        111100925105629     302280J0240 T 1103700138544andsdzi99@hotmail.com                             991590001046  001201 0108  B  +000  000   000 0 ตกลง
1005408072นางสาว         จุฑารัตน์ จิตซื่อ                    2350219176/1 ม.2      ต.มะลวน อ.พุนพิน                        สุราษฎร์ธานี   841300846484860     302030B0093 T 1849700034012mylove_biw@hotmail.com                            991590000977  001201 0108  B  +000  000   000 0 ตกลง
1005423615นาย            ชัชวาลย์ กุลโกวิท                    199011624/105         ม.ทาวน์โฮม 2 ซ.งามวงศ์วาน 54            เขตจตุจักร กทม.109000868748517     20421001201 T 3101600886713feduevk@ku.ac.th                                  9915900009515 001201 0108  B  +000  000   000 0 ตกลง
1005617183นาย            สิรภัทร เลิศไชยงค์พานิช              1350206304/19 ม.2     เคหะทุ่งสองห้อง เขตหลักสี่              กรุงเทพฯ       102100626658619     -0228001201 T 1100500649933                                                  9915900008912 001201 0108  B  +000  000   000 0 ตกลง
1005732303นางสาว         พัฒนียา ปรางทิพย์                    218041226 ม.5         ต.ทรงคนอง อ.สามพราน                     นฐ             732100853833633     20303001201 T 3730600598525                                                  991590001073  001201 0108 O   +000  000   000 0 ตกลง
1005787743นาย            สุรเชษฐ์ รุ่งเรืองสาคร               126042699/40 ม.4      ต.บางน้ำจืด อ.เมือง                     สมุทรสาคร      740000959606240     306250A0000 T 5749999001542                                                  991590001057  001201 0108  B  +000  000   000 0 ตกลง
1005801127นาย            วีระชัย สนสร้อย                      13607162/27-301       กรมการขนส่งทหารบก                       เขตดุสิต กท.   103000889133345     -0106001201 T 1100200845087                                                  991590000964  001201 0108A B  +000  000   000 0 ตกลง
1005837108นาย            เอกชน ก้อนมณี                        1360801239/57         ถ.ลาดพร้าว แขวงจอมพล เขตจตุจักร         กทม.           109000923836660     10309001201 T 1600100525281                                                  991590000877  001201 0108 O   +000  000   000 0 ตกลง
1005902628นาย            ธนพล อินต๊ะ                          111061818/1 ถ.พระพายัพซ.6 อ.แก่งคอย                           สระบุรี        181100822315837     30108001201 T 3420800110847                                                  991590000981  001201 0108 O   +000  000   000 0 ตกลง
1005902629นางสาว         กวนธมร น้อยสุข                       227060424 ม.8         ต.คลองม่วง อ.ปากช่อง                    นครราชสีมา     301300928099427     30108001201 T 1302100006300                                                  991590000991  001201 0108  B  +000  000   000 0 ตกลง
1005902642นางสาว         ปาลิกา เทียกมา                       23408132 รพ.ราชวิถี   ถ.พญาไท แขวงทุ่งพญาไท เขตราชเทวี        กทม.           104000805551400     30108001201 T 1311000168021                                                  991590001061  001201 0108  B  +000  000   000 0 ตกลง
10N5629553นาย            อภิรักษ์ ทองปาน                      133010792/4 ต.ดงใหญ่  อ.วาปีปทุม                              มหาสารคาม      441200923962925     31122001201 T 1103700032347                                                  991590001089  001201 0108 O   +000  000   000 0 ตกลง
10N5738591นาย            สุภัทรชัย โอฬารกิจกุลชัย             1260215127            ซ.เขมาเนรมิตร ถ.ประชาราษฎร์สาย1         เขตบางซื่อ กทม.108000817750044     20923001201 T 3670500118760                                                  991590000935  001201 0108  B  +000  000   000 0 ตกลง
1144613701พระมหา         ธนไชย สิทธิ์ประเสริฐ                 1170724วัดธาตุทอง     แขวงพระโขนงเหนือ เขตวัฒนา               กทม.           101100974690308     50924501001 T 3300200185073                                                  9915900011584 001201 0108 O   +000  000   000 0 ตกลง
1145406076นางสาว         เนตรนภา กาศวิเศษ                     2191007250/29         ซ.เสนานิคม 1 แขวงจันทรเกษม              เขตจตุจักร กทม.109000895003329     20330501201 T 3540500161810k_netnapa@hotmail.com                             9915900009225 001201 0108  B  +000  000   000 0 ตกลง
1654302724นาย            นพรัตน์ ปิติมล                       126030959/17          ม.วิลล่ารามอินทรา เขตบางเขน             กทม.           102200817039251     -01220B0351 T 5320590044719nop9326@hotmail.com                               9915900008653 001201 0108 O   +000  000   000 0 ตกลง
1693939930นางสาว         รัตน์ตรี รสหอม                       21508072              โรงพยาบาลราชวิถี แขวงพญาไท              เขตราชเทวี กทม.104000846733645     20731001201 T 3330800236329                                                  9915900011052 001201 0108 O   +000  000   000 0 ตกลง
1694972549นางสาว         นลัทธร สุขสำราญ                      2280129135/74         ม.รุ่งกิจวิลล่า5 ถ.ร่มเกล้า แขวงคลองสองตเขตลาดกระบัง กท105200804245005     30513001201 T 1341900031511                                                  991590001146  001201 0108A    +000  000   000 0 ตกลง
1694972677นายแพทย์       พงศ์ราม รามสูต                       1050828116/1          ถ.ลาดพร้าว 94 ถ.ลาดพร้าว                วังทองหลาง กทม.103100815527589     21119001201 T 3100903491714pongrama@yahoo.com                                9915900011332 001201 0108 O   +000  000   000 0 ตกลง
1695189510นาย            กฤษฏา ลิ้มภักดีสถาพร                 1060410436 ม.3        ม.วังทอง แขวงหนองแขม                    เขตหนองแขม กทม.101600867080736     209110E0942 T 3750100001597                                                  9915900010218 001201 0108A    +000  000   000 0 ตกลง
2113901279นาย            ญาญัฏฐ์ ไทรงาม #                     1170705ราชบัณฑิตยสถาน ถ.ศรีอยุธยา                             เขตดุสิต กทม.  103000855600677     20918       T 3939900117057phansa_s1974@yahoo.com                            9915900010065 001201 0108A    +000  000   000 0 ตกลง
