1002108975???            ????????? ???????????                1031031622/82         ?.??????2 ?????????                     ?????????????? 101500814319070     311030E0294 T 3100901419714                                                  9915900312871 001201 0502 O   +000  000   000 0 ????
1003117997???            ?????? ??????????                    1110203260/7 ???? 15  ??????????? ??.11                       ?????????? ???.109000814542495     205080A0000 T 4259900002513srankthai@yahoo.com                               9915900308145 001201 0502A    +000  000   000 0 ????
1003908763??????         ???????? ??????????                  21809182098/72        ?.?????????????? ??????                 ???????        104000844254418     -02220A0000 T 3330900730341                                                  9915900307829 001201 0502 O   +000  000   000 0 ????
1004259431???            ??????? ??????                       1260225201/7 ?.4      ?.????????? ?.23 ?????????              ???.           102200819052486     211110B0304 T 3100500954422                                                  9915900310316 001201 0502 O   +000  000   000 0 ????
1004742786???            ???????? ??????????                  1290222               48/2 ?.???????? 24 ?????????            ??????????? ???102100862360040     307010B0131 T 1101499043071nirun_bm@hotmail.com                              9915900309832 001201 0502A    +000  000   000 0 ????
1005085705???            ?????? ???????????????               1171007807            ?.?????????????? ??????????             ????????? ???. 104000890353223     311230A0000 TN3101700775310mamunmax@hotmail.com                              991590030822  001201 0502 O   +000  200   000 0 ????
1005162926??????         ?????????? ?????????                 2200114145/35         ?.????????????? ????????????? ?????????????.           103100868850793     309200A0000 T 3490500469696yaowarat@fujifilm.co.th                           991590031096  001201 0502A B  +000  000   000 0 ????
1005178051??????         ????????? ??????                     23409176 ?.???????? 74???3-10-17                              ??????????? .  102300870787764     111210B0374 T 1102700125158cn_neay@hotmail.com                               9915900312311 001201 0502  B  +000  000   000 0 ????
1005338459??????         ???????? ????????                    2330526238 ?.2        ?.?????? ?.???????????                  ????????       461100811340403     20605001201 T 1460500150464niphapat_1990@hotmail.com                         991590030933  001201 0502A    +000  000   000 0 ????
1005423615???            ???????? ????????                    199011624/105         ?.???????? 2 ?.?????????? 54            ?????????? ???.109000868748517     20421001201 T 3101600886713feduevk@ku.ac.th                                  9915900308616 001201 0502  B  +000  000   000 0 ????
1005427887??????         ????? ?????????                      23101015/1052 ?.10    ?.??????? ?.????????                    ???????        111200871235435     305150E0942 T 1250500075839enjoy_doremon@hotmail.com                         991590030924  001201 0502A    +000  000   000 0 ????
1005507731??????         ??????? ?????????                    235101712/39          ?.???????? ?.??????? ????????           ???????? ??????151100840184128     102010B0223 T 1169800126292tnn_238_shd@hotmail.com                           991590031015  001201 0502  B  +000  000   000 0 ????
1005507918??????         ??????? ????                         221041738/3 ?.3       ?.????????? ?.??????                    ???????????    105600897627198     302020E0681 T 3341400235326                                                  9915900310511 001201 0502  B  +000  000   000 0 ????
1005549005???            ?????? ????????                      1050401               215 ?.?????? 18/7 ??? 17                ??????? ???.   101200814978860     -0720001201 T 3101201645348                                                  9915900311010 001201 0502A    +000  000   000 0 ????
1005550806???            ????? ???????????                    1180611145 ?.3        ?.?????? ?.???????                      ?????????      611400897738322     30727001201 T 3610600476170                                                  9915900309524 001201 0502  B  +000  000   000 0 ????
1005590930???            ??????? ???????                      2200724774 ?.??????   ????????????                            ????????? ???. 102000816271321     312130A0000 T 3179900086540kkoonteera@hotmail.com                            991590030884  001201 0502 O   +000  000   000 0 ????
1005594485??????         ??????? ?????????                    23107162/1 ?.2        ?.????????? ?.?????????????             ??????????     241500927784804     212240D0060 T 1240300102476playgirl_ta@windowslive.com                       991590030914  001201 0502 O   +000  000   000 0 ????
1005616993???            ???????? ??????????                  13710032/1            ????????????? ??????????                ???.           104000869776301     10227001201 T 1102800046497por_thananan@hotmail.com                          991590031115  001201 0502  B  +000  000   000 0 ????
1005766188???            ??????? ???????                      1350520123 ?.4        ?.????????? ?.??????                    ??.            105600991655456     305220A0000 T 1200100408024                                                  991590031268  001201 0502A    +000  000   000 0 ????
1005788466???            ??????? ????????????????             1290102232-246        ??????????????? ?????????               ???.           102000864034540     30209001201 T 1100700431303                                                  9915900308010 001201 0502  B  +000  000   000 0 ????
1005798574???            ?????? ?????????                     1250914               126/9 ?.??????? 2 ?????????? ?????????  ???.           104000899659642     -0716001201 T 3840100160864                                                  991590031203  001201 0502 O   +000  000   000 0 ????
1514403462??????         ??????? ????????                     2130522825 ?.3 ?.21   ?.?????? ?.?????                        ????????       120000892066878     20311001201 T 3160100005539                                                  9915900308922 001201 0502  B  +000  000   000 0 ????
1005867327??????         ??????? ???????                      226052418/8 ?.11      ?.??????? ?.????????                    ????????       121200904212872     30501001201 T 3130200573792                                                  991590030972  001201 0502A    +000  000   000 0 ????
1005912594???            ?????? ????????                      209020646 ???????? 39 ??? 2 ????????                          ?????? ??      104000945596628     20201001201 T 3100200388677                                                  991590030773  001201 0502A B  +000  000   000 0 ????
1005912603??????         ??????? ?????????                    2350914420/7          ??.????????????????                     ????????? ?????104000897095955     20201001201 T 1350300107485                                                  991590031192  001201 0502A B  +WWW  000   000 0 ????
1005912732???            ????? ?????????                      207102655             ?.???????????? ???????????? 36          ???????? ???.  102300890300281     -0201001201 T 3100602026931                                                  991590030902  001201 0502 O   +000  000   000 0 ????
1005945972???            ???? ??????                          1310229364/38 ?.10    ?.?????? ?.?????                        ???            630000987722123     30502001201 T 1101401251223                                                  991590030831  001201 0502  B  +000  000   000 0 ????
1005945973???            ????? ???????                        205050289 ?.2         ?.?????                                 ?????????      440000918748781     30502001201 T 3449900228732                                                  991590031171  001201 0502 O   +000  000   000 0 ????
1005945974???            ????? ??????????                     12510173/178 ?.?????? ?.????????                              ??????         73180               30502001201 T 3101700372835                                                  991590031041  001201 0502  B  +000  000   000 0 ????
1005945975???            ????? ????????????                   220010439 ?.9         ?????????? ???????                      ???.           105300896683644     -0502001201 T 3260400129534                                                  991590030841  001201 0502 O   +000  000   000 0 ????
1005945976???            ????? ????????????                   1270914338107 ?.4/2   ?.???????                               ?.?????? ??????10540                0502001201 T 1100400052765                                                  991590031181  001201 0502 O   +000  000   000 0 ????
1005945977???            ????????? ??????????????             223100239/2 ?.1       ?.???????? ?.???????????????            ??????         130000805577710     30502001201 T 3140100091095                                                  991590030851  001201 0502A B  +110  000   000 0 ????
1005945979??????         ???? ???????                         220071331/1 ?.8       ?.?????? ?.??????????                   ?????????      741100939149332     30502001201 T                                                                991590031071  001201 0502A    +000  000   000 0 ????
1005945982??????         ?????? ??????                        241050324 ?.8 ?.???????.??????????                            ?????????      741100971120021     10502001201 T 1749800217888                                                  991590031081  001201 0502  B  +000  000   000 0 ????
1005945984???            ?????? ??????????                    1050608499/3-12       ?.?????????? ?.?????                    ???????????    102700895231490     30502001201 T 3102401233257                                                  991590031211  001201 0502A    +000  000   000 0 ????
1005946030???            ???????? ???????                     2040725653 ?.1        ?.???????????? ?.?????                  ???????????    102700943427022     20502001201 T 3110101418730                                                  991590031131  001201 0502A    +000  000   000 0 ????
1005946031???            ????? ?????????                      124122448/15          ?.????????26 ????????????               ??????????? ???102400891370972     30502001201 TN1101400880596                                                  991590031251  001201 0502 O   +000  000       & ????
1005946032??????         ??????? ??????                       236053093/26          ?.?????????28 ?.??????????? ?????????   ?????????????? 551100967867067     10502001201 T 1550600072588                                                  991590031141  001201 0502A B  +000  000   000 0 ????
1005946036??????         ?????? ???????                       2250425729/13         ?.??????? ?.??????????????              ?????? ???     104000867746746     30502001201 T 5101700005626                                                  991590031161  001201 0502 O   +000  000   000 0 ????
1005946037Mr.            NAN SU HLAING MYO                    1350525               ???????????????                                             0951160070     -0502001201 T                                                                991590030941  001201 0502  B  +000  000   000 0 ????
1093401617???            ???? ??????????                      206062521 ?.1         ?.??????? ?.?????                       ????????       120000851746077     206090H0016 T 3130100005784                                                  9915900310251 001201 0502A    +000  000   000 0 ????
10N5738601???            ????? ????????                       127020433 ?.9         ?.??????? ?.???????                     ????????       651400959507990     30923001201 T 1650400002062                                                  991590030994  001201 0502  B  +000  000   000 0 ????
10N5774425???            ??????? ????????                     13705302/1 ?.?????    ??????????????                          ?????????? ??? 104000865616513     11204001201 T 1119900473555                                                  991590031152  001201 0502A    +000  000   000 0 ????
10N5821023??????         ????????? ?????????????              2411120123            ???????.??????????? ??????????          ???.           104000813087554     10818001201 T 1103702707759                                                  991590031222  001201 0502A    +000  000   000 0 ????
1105701729???            ??????? ??????                       122081096 ?.5         ?.??????? ?.????????                    ???????        401500951022718     30106601201 T 3401600600531                                                  991590030966  001201 0502  B  +000  000   000 0 ????
1213700417???            ??????? ?????? (2)                   105010194/4 ?.19      ?.??????????? 2 ????????????            ??????????? ???101700896769006     207210A0000 T 3101401407718                                                  9915900308715 001201 0502 O   -000  000   000 0 ????
1265205800???            ?????? ??????????                    13511062/1            ????????????? ??????????                ???.           104000877332271     11204901201 T 1659900540428                                                  9915900311212 001201 0502A    +000  000   000 0 ????
1675503237??????         ????? ????????                       235091358/1 ?.6       ?.??????????????                        ?????????????? 102900826890677     31220001404 T 1103700895248                                                  991590030763  001201 0502 O   +000  000   000 0 ????
1694260723???            ?????? ?????????????                 1251022174 ?.??????4  ?.54 ???4 ?.??????                      ??????????? ???102300851588466     305020A0000 T 3101403474331hikaru192@hotmail.com                             9915900307943 001201 0502  B  +000  000   000 0 ????
1694470097???            ????? ???????                        1200120650/103 ?.5    ?.???????? 26 ????????????              ?????????? ???.102400900042744     30501       T 3570100750010                                                  9915900312731 001201 0502A    +000  000   000 0 ????
1695073355??????         ?????? ????????                      204060956/25 ?.8      ?.?????? ?.?????                        ???????        110000819295887     -1010001201 T 3101800593221                                                  9915900310028 001201 0502  B  +000  000   000 0 ????
1835000423???            ?????? ????????                      132111522/8 ?.3       ?.????? ?.????????                      ?????????      161300897897649     10509206201 T 1179900174604sornjung@hotmail.com                              9915900310627 001201 0502 O   +000  000   000 0 ????
1854300136???            ?????? ???????????????               126112916/872         ?.???????? ?.????????                   ???????        111200836012786     30121001201 T 5101500002186ji_gee7@hotmail.com                               9915900312462 001201 0502  B  +000  000   000 0 ????
